…
``` r
#clean up the imported data
who_pa_data_A <- who_pa_data %>% 
  rename(c("Insufficiently.active..age.standardized.estimate." = "insuffAct")) %>% 
  rename(c("Country" = "country")) %>%
  select(country, insuffAct)

#prep the data for joining
gapminderD <- gapminder %>%
  filter(year==2007) #activity data is only available for 2010 in the WHO data, so decided to only use gapminder data from 2007, the closest year to 2010
gapminderD #check out the data
```

    ## # A tibble: 142 × 6
    ##        country continent  year lifeExp       pop  gdpPercap
    ##         <fctr>    <fctr> <int>   <dbl>     <int>      <dbl>
    ## 1  Afghanistan      Asia  2007  43.828  31889923   974.5803
    ## 2      Albania    Europe  2007  76.423   3600523  5937.0295
    ## 3      Algeria    Africa  2007  72.301  33333216  6223.3675
    ## 4       Angola    Africa  2007  42.731  12420476  4797.2313
    ## 5    Argentina  Americas  2007  75.320  40301927 12779.3796
    ## 6    Australia   Oceania  2007  81.235  20434176 34435.3674
    ## 7      Austria    Europe  2007  79.829   8199783 36126.4927
    ## 8      Bahrain      Asia  2007  75.635    708573 29796.0483
    ## 9   Bangladesh      Asia  2007  64.062 150448339  1391.2538
    ## 10     Belgium    Europe  2007  79.441  10392226 33692.6051
    ## # ... with 132 more rows
``` r
#joining the data sets
who_gapminder <- left_join(gapminderD, who_pa_data_A) #join gapminder and who data
```

    ## Joining, by = "country"

    ## Warning in left_join_impl(x, y, by$x, by$y, suffix$x, suffix$y): joining
    ## factors with different levels, coercing to character vector

``` r
who_gapminder #check out the data
```

    ## # A tibble: 142 × 7
    ##        country continent  year lifeExp       pop  gdpPercap insuffAct
    ##          <chr>    <fctr> <int>   <dbl>     <int>      <dbl>     <dbl>
    ## 1  Afghanistan      Asia  2007  43.828  31889923   974.5803        NA
    ## 2      Albania    Europe  2007  76.423   3600523  5937.0295        NA
    ## 3      Algeria    Africa  2007  72.301  33333216  6223.3675      34.4
    ## 4       Angola    Africa  2007  42.731  12420476  4797.2313        NA
    ## 5    Argentina  Americas  2007  75.320  40301927 12779.3796      39.2
    ## 6    Australia   Oceania  2007  81.235  20434176 34435.3674      23.8
    ## 7      Austria    Europe  2007  79.829   8199783 36126.4927      23.8
    ## 8      Bahrain      Asia  2007  75.635    708573 29796.0483        NA
    ## 9   Bangladesh      Asia  2007  64.062 150448339  1391.2538      26.8
    ## 10     Belgium    Europe  2007  79.441  10392226 33692.6051      33.2
    ## # ... with 132 more rows

``` r
who_gapminderC <- who_gapminder %>% 
  filter(insuffAct >= 0) %>%  #remove countries missing WHO activity data
  mutate(n_insuffAct = ((insuffAct/100)*pop)) #convert percentage of population that is insufficiently active into an actual number of people who are insufficiently active, by mutiplying % by population
who_gapminderC #check out the data
```

    ## # A tibble: 96 × 8
    ##                   country continent  year lifeExp       pop gdpPercap
    ##                     <chr>    <fctr> <int>   <dbl>     <int>     <dbl>
    ## 1                 Algeria    Africa  2007  72.301  33333216  6223.367
    ## 2               Argentina  Americas  2007  75.320  40301927 12779.380
    ## 3               Australia   Oceania  2007  81.235  20434176 34435.367
    ## 4                 Austria    Europe  2007  79.829   8199783 36126.493
    ## 5              Bangladesh      Asia  2007  64.062 150448339  1391.254
    ## 6                 Belgium    Europe  2007  79.441  10392226 33692.605
    ## 7                   Benin    Africa  2007  56.728   8078314  1441.285
    ## 8  Bosnia and Herzegovina    Europe  2007  74.852   4552198  7446.299
    ## 9                Botswana    Africa  2007  50.728   1639131 12569.852
    ## 10                 Brazil  Americas  2007  72.390 190010647  9065.801
    ## # ... with 86 more rows, and 2 more variables: insuffAct <dbl>,
    ## #   n_insuffAct <dbl>
…
