…
nest the data by country and continent.
---------------------------------------

Nesting is an extension of grouping. Unlike grouping though, the collapse to a single row per group happens right away. The non-grouping variables are packaged into group-specific data frames that are held in a list-column. Then the computation to the components of this list gets applied.

First, group, and then nest. Group by country and continent.

``` r
(gap_nested <- gapminder %>% 
   group_by(continent, country) %>% 
   nest())
```

    ## # A tibble: 142 × 3
    ##    continent     country              data
    ##       <fctr>      <fctr>            <list>
    ## 1       Asia Afghanistan <tibble [12 × 4]>
    ## 2     Europe     Albania <tibble [12 × 4]>
    ## 3     Africa     Algeria <tibble [12 × 4]>
    ## 4     Africa      Angola <tibble [12 × 4]>
    ## 5   Americas   Argentina <tibble [12 × 4]>
    ## 6    Oceania   Australia <tibble [12 × 4]>
    ## 7     Europe     Austria <tibble [12 × 4]>
    ## 8       Asia     Bahrain <tibble [12 × 4]>
    ## 9       Asia  Bangladesh <tibble [12 × 4]>
    ## 10    Europe     Belgium <tibble [12 × 4]>
    ## # ... with 132 more rows
…
To scale this up to all countries, use map() inside of mutate() to store the models inside gap\_nested, in another list-column.

``` r
(gap_nested <- gap_nested %>% 
   mutate(fit = map(data, le_vs_yr)))
```

    ## # A tibble: 142 × 4
    ##    continent     country              data              fit
    ##       <fctr>      <fctr>            <list>           <list>
    ## 1       Asia Afghanistan <tibble [12 × 4]> <S3: summary.lm>
    ## 2     Europe     Albania <tibble [12 × 4]> <S3: summary.lm>
    ## 3     Africa     Algeria <tibble [12 × 4]> <S3: summary.lm>
    ## 4     Africa      Angola <tibble [12 × 4]> <S3: summary.lm>
    ## 5   Americas   Argentina <tibble [12 × 4]> <S3: summary.lm>
    ## 6    Oceania   Australia <tibble [12 × 4]> <S3: summary.lm>
    ## 7     Europe     Austria <tibble [12 × 4]> <S3: summary.lm>
    ## 8       Asia     Bahrain <tibble [12 × 4]> <S3: summary.lm>
    ## 9       Asia  Bangladesh <tibble [12 × 4]> <S3: summary.lm>
    ## 10    Europe     Belgium <tibble [12 × 4]> <S3: summary.lm>
    ## # ... with 132 more rows
…
    ##                 term     estimate    std.error statistic      p.value
    ## 1        (Intercept) 28.178686813 0.4330129763 65.075848 2.411684e-13
    ## 2     I(year - 1952)  0.482761638 0.0366012911 13.189743 3.428452e-07
    ## 3 I((year - 1952)^2) -0.003771508 0.0006412076 -5.881884 2.342789e-04

The result is a three row data frame, one row for the intercept, another for the first slope term, and another for the squared slope term.

Apply tidy() to the model for each country with the same map() inside mutate() approach as above.

``` r
(gap_nested <- gap_nested %>% 
   mutate(tidy = map(fit, tidy)))
```

    ## # A tibble: 142 × 5
    ##    continent     country              data              fit
    ##       <fctr>      <fctr>            <list>           <list>
    ## 1       Asia Afghanistan <tibble [12 × 4]> <S3: summary.lm>
    ## 2     Europe     Albania <tibble [12 × 4]> <S3: summary.lm>
    ## 3     Africa     Algeria <tibble [12 × 4]> <S3: summary.lm>
    ## 4     Africa      Angola <tibble [12 × 4]> <S3: summary.lm>
    ## 5   Americas   Argentina <tibble [12 × 4]> <S3: summary.lm>
    ## 6    Oceania   Australia <tibble [12 × 4]> <S3: summary.lm>
    ## 7     Europe     Austria <tibble [12 × 4]> <S3: summary.lm>
    ## 8       Asia     Bahrain <tibble [12 × 4]> <S3: summary.lm>
    ## 9       Asia  Bangladesh <tibble [12 × 4]> <S3: summary.lm>
    ## 10    Europe     Belgium <tibble [12 × 4]> <S3: summary.lm>
    ## # ... with 132 more rows, and 1 more variables: tidy <list>

Lastly, we can simplify back to a normal tibble, using unnest() to complete the circle.

``` r
(gap_coefs <- gap_nested %>% 
select(continent, country, tidy) %>% 
unnest(tidy))
```

    ## # A tibble: 426 × 7
    ##    continent     country               term     estimate    std.error
    ##       <fctr>      <fctr>              <chr>        <dbl>        <dbl>
    ## 1       Asia Afghanistan        (Intercept) 28.178686813 0.4330129763
    ## 2       Asia Afghanistan     I(year - 1952)  0.482761638 0.0366012911
    ## 3       Asia Afghanistan I((year - 1952)^2) -0.003771508 0.0006412076
    ## 4     Europe     Albania        (Intercept) 56.853134615 1.0134515113
    ## 5     Europe     Albania     I(year - 1952)  0.619802448 0.0856640234
    ## 6     Europe     Albania I((year - 1952)^2) -0.005183986 0.0015007236
    ## 7     Africa     Algeria        (Intercept) 41.942236264 0.7537233613
    ## 8     Africa     Algeria     I(year - 1952)  0.741208292 0.0637099802
    ## 9     Africa     Algeria I((year - 1952)^2) -0.003125974 0.0011161170
    ## 10    Africa      Angola        (Intercept) 30.117670330 0.4785540412
    ## # ... with 416 more rows, and 2 more variables: statistic <dbl>,
    ## #   p.value <dbl>
…
explore the estimated coefficients.
-----------------------------------

``` r
(gap_coefs <- gap_coefs %>%
   mutate(term = recode(term,
                        `(Intercept)` = "intercept",
                        `I(year - 1952)` = "slope",
                        `I((year - 1952)^2)` = "slope2")))
```

    ## # A tibble: 426 × 7
    ##    continent     country      term     estimate    std.error statistic
    ##       <fctr>      <fctr>     <chr>        <dbl>        <dbl>     <dbl>
    ## 1       Asia Afghanistan intercept 28.178686813 0.4330129763 65.075848
    ## 2       Asia Afghanistan     slope  0.482761638 0.0366012911 13.189743
    ## 3       Asia Afghanistan    slope2 -0.003771508 0.0006412076 -5.881884
    ## 4     Europe     Albania intercept 56.853134615 1.0134515113 56.098525
    ## 5     Europe     Albania     slope  0.619802448 0.0856640234  7.235271
    ## 6     Europe     Albania    slope2 -0.005183986 0.0015007236 -3.454324
    ## 7     Africa     Algeria intercept 41.942236264 0.7537233613 55.646725
    ## 8     Africa     Algeria     slope  0.741208292 0.0637099802 11.634100
    ## 9     Africa     Algeria    slope2 -0.003125974 0.0011161170 -2.800758
    ## 10    Africa      Angola intercept 30.117670330 0.4785540412 62.934732
    ## # ... with 416 more rows, and 1 more variables: p.value <dbl>

Next, I wanted to try out gap\_ests, a reshaped version of estimates, for numerical summarization and visualization.

``` r
(gap_ests <- gap_coefs %>% 
   select(continent:estimate) %>% 
   spread(key = term, value = estimate))
```

    ## # A tibble: 142 × 5
    ##    continent                  country intercept     slope       slope2
    ## *     <fctr>                   <fctr>     <dbl>     <dbl>        <dbl>
    ## 1     Africa                  Algeria  41.94224 0.7412083 -0.003125974
    ## 2     Africa                   Angola  30.11767 0.4504179 -0.004383237
    ## 3     Africa                    Benin  37.86994 0.5404620 -0.003749620
    ## 4     Africa                 Botswana  44.91197 1.0227257 -0.017491948
    ## 5     Africa             Burkina Faso  31.54945 0.7402045 -0.006840539
    ## 6     Africa                  Burundi  39.26621 0.3116255 -0.002863477
    ## 7     Africa                 Cameroon  36.75949 0.7889436 -0.009796304
    ## 8     Africa Central African Republic  33.86187 0.7776226 -0.010794855
    ## 9     Africa                     Chad  37.15506 0.5717611 -0.005791219
    ## 10    Africa                  Comoros  40.64126 0.3729596  0.001407842
    ## # ... with 132 more rows
…
