…
Life expectancy, when weighted by population, shows a steady increase from 1952 until 2007. The exception is for the 1957 until 1962 measurement points, when life expectancy seemed to stagnate.

TASK 3. How is life expectancy changing over time on different continents?
==========================================================================

``` r
#Tables
gapminder %>%
  select(continent, lifeExp, year) %>% 
  group_by(continent, year) %>%
  summarize(m_lifeExp = mean(lifeExp)) #mean life expectancy
```

    ## Source: local data frame [60 x 3]
    ## Groups: continent [?]
    ## 
    ##    continent  year m_lifeExp
    ##       <fctr> <int>     <dbl>
    ## 1     Africa  1952  39.13550
    ## 2     Africa  1957  41.26635
    ## 3     Africa  1962  43.31944
    ## 4     Africa  1967  45.33454
    ## 5     Africa  1972  47.45094
    ## 6     Africa  1977  49.58042
    ## 7     Africa  1982  51.59287
    ## 8     Africa  1987  53.34479
    ## 9     Africa  1992  53.62958
    ## 10    Africa  1997  53.59827
    ## # ... with 50 more rows
…
``` r
#Figures
gapminder %>%
  group_by(country) %>% 
  select(continent, country, lifeExp) %>% 
  summarize(min_lifeExp = min(lifeExp), max_lifeExp = max(lifeExp))
```

    ## # A tibble: 142 × 3
    ##        country min_lifeExp max_lifeExp
    ##         <fctr>       <dbl>       <dbl>
    ## 1  Afghanistan      28.801      43.828
    ## 2      Albania      55.230      76.423
    ## 3      Algeria      43.077      72.301
    ## 4       Angola      30.015      42.731
    ## 5    Argentina      62.485      75.320
    ## 6    Australia      69.120      81.235
    ## 7      Austria      66.800      79.829
    ## 8      Bahrain      50.939      75.635
    ## 9   Bangladesh      37.484      64.062
    ## 10     Belgium      68.000      79.441
    ## # ... with 132 more rows
…
``` r
m_lifeExp <- 67.00742

#Table
gapminder %>%
  group_by(continent, year) %>% 
  filter(lifeExp < m_lifeExp) %>%
  summarize(n_countries = n_distinct(country)) %>% 
  arrange(n_countries)
```

    ## Source: local data frame [45 x 3]
    ## Groups: continent [4]
    ## 
    ##    continent  year n_countries
    ##       <fctr> <int>       <int>
    ## 1     Europe  1972           1
    ## 2     Europe  1977           1
    ## 3     Europe  1982           1
    ## 4     Europe  1987           1
    ## 5     Europe  1992           1
    ## 6   Americas  2002           2
    ## 7   Americas  2007           2
    ## 8   Americas  1997           3
    ## 9     Europe  1967           6
    ## 10  Americas  1992           7
    ## # ... with 35 more rows
…
